ticker,name,ipo,type
DELL,Dell Technologies Inc. Class C ,01/02/1990,Common stocks
FICO,Fair Isaac Corp,01/02/2003,Common stocks
WORK,"Slack Technologies, Inc. Class A",01/04/1999,Common stocks
IAC,IAC/InterActive,01/12/1995,Common stocks
DASH,DoorDash Inc,01/22/2018,Common stocks
SC,Santander Consumer USA Holdings,01/23/2014,Common stocks
ALLY,Ally Financial Inc,01/28/2014,Common stocks
ALXN,Alexion Pharmaceuticals Inc,02/06/2001,Common stocks
BMRN,Biomarin Pharmaceutical Inc,02/06/2001,Common stocks
AFG,American Financial Group Inc,02/06/2001,Common stocks
BRKR,Bruker Corp,02/08/2001,Common stocks
EPAM,Epam Systems Inc,02/08/2012,Common stocks
BRO,Brown & Brown Inc,02/11/1981,Common stocks
FWONA,Liberty Media Formula One Corp Series A,02/11/2013,Common stocks
SIRI,Sirius Xm Holdings Inc,02/11/2013,Common stocks
ZG,Zillow Group Inc Class A,02/11/2013,Common stocks
BKI,Black Knight,02/11/2013,Common stocks
CSGP,Costar Group Inc,02/12/2001,Common stocks
CCK,Crown Holdings Inc,02/12/2001,Common stocks
CLF,Cleveland-Cliffs Inc. ,02/13/2001,Common stocks
DAR,Darling Ingredients Inc,02/13/2001,Common stocks
GME,Gamestop Corp Class A,02/13/2002,Common stocks
EXAS,Exact Sciences Corp,02/14/2001,Common stocks
ENTG,Entegris Inc,02/14/2001,Common stocks
DECK,Deckers Outdoor Corp,02/14/2001,Common stocks
FDS,Factset Research Systems Inc,02/20/2001,Common stocks
HEI,Heico Corp,02/21/2001,Common stocks
HUBB,Hubbell Inc,02/21/2001,Common stocks
JLL,Jones Lang LaSalle Inc,02/22/2001,Common stocks
LAD,Lithia Motors Inc Class A,02/23/2001,Common stocks
PATH,"UiPath, Inc.",02/24/2020,Common stocks
MRVL,Marvell Technology Group Ltd,02/26/2001,Common stocks
LNG,Cheniere Energy Inc,02/26/2001,Common stocks
NDSN,Nordson Corp,02/26/2001,Common stocks
LII,Lennox International Inc,02/26/2001,Common stocks
MKL,Markel Corp,02/27/2001,Common stocks
MTN,Vail Resorts Inc,02/27/2001,Common stocks
OLED,Universal Display Corp,02/27/2001,Common stocks
ON,ON Semiconductor Corp,02/28/2001,Common stocks
PCG,Pacific Gas & Electric Co. ,03/01/2001,Common stocks
PLUG,Plug Power Inc,03/01/2001,Common stocks
SNAP,Snap Inc. Class A,03/02/2017,Common stocks
RGEN,Repligen Corp,03/05/2001,Common stocks
STLD,Steel Dynamics Inc,03/06/2001,Common stocks
RPM,RPM International Inc,03/06/2001,Common stocks
SGEN,Seattle Genetics Inc,03/07/2001,Common stocks
TECH,Bio-Techne Corp,03/07/2001,Common stocks
RBLX,Roblox Corp,03/10/2021,Common stocks
WSM,Williams Sonoma Inc,03/13/2001,Common stocks
WSO,Watsco Inc,03/13/2001,Common stocks
ZS,Zscaler Inc,03/16/2018,Common stocks
GGG,Graco Inc,03/17/1980,Common stocks
TTC,Toro,03/17/1980,Common stocks
TPL,Texas Pacific Land Trust,03/17/1980,Common stocks
PCTY,Paylocity Holding Corp,03/19/2014,Common stocks
LYFT,"Lyft, Inc. - Class A",03/21/2019,Common stocks
SEDG,SolarEdge Technologies Inc,03/26/2015,Common stocks
SSNC,"SS&C Technologies Holdings, Inc.",03/31/2010,Common stocks
GDDY,GoDaddy Inc. Class A,04/01/2015,Common stocks
GRUB,Grubhub Inc,04/04/2014,Common stocks
FIVN,Five9 Incinary,04/04/2014,Common stocks
OKTA,Okta Inc Class A,04/07/2017,Common stocks
TREX,Trex Inc,04/08/1999,Common stocks
AGL,"agilon health, inc.",04/15/2021,Common stocks
APP,Applovin Corp,04/15/2021,Common stocks
PINS,"Pinterest, Inc. Class A",04/17/2019,Common stocks
BATRA,Liberty Media Liberty Braves Corp Series A,04/18/2016,Common stocks
BATRK,Liberty Media Liberty Braves Corp Series C,04/18/2016,Common stocks
LSXMA,Liberty Media Liberty Siriusxm Series A,04/18/2016,Common stocks
LSXMK,Liberty Media Liberty Siriusxm Series C,04/18/2016,Common stocks
ZM,"Zoom Video Communications, Inc. - Class A",04/18/2019,Common stocks
SPLK,Splunk Inc,04/19/2012,Common stocks
LSXMB,Liberty Media Liberty Siriusxm Series B,04/21/2016,Common stocks
DKNG,DraftKings Inc. - Class A,04/24/2020,Common stocks
CDAY,Ceridian HCM Holding Inc.,04/26/2018,Common stocks
FND,Floor Decor Holdings Inc ,04/27/2017,Common stocks
DOCU,Docusign Inc.,04/27/2018,Common stocks
CVNA,Carvana Class A,04/28/2017,Common stocks
ARES,Ares Management Corporation Class A,05/02/2014,Common stocks
MORN,Morningstar Inc,05/03/2005,Common stocks
CG,Carlyle Group ,05/03/2012,Common stocks
UBER,"Uber Technologies, Inc.",05/08/2019,Common stocks
EQH,AXA Equitable Holdings Inc,05/10/2018,Common stocks
XPO,XPO Logistics Inc,05/12/2004,Common stocks
PODD,Insulet Corp,05/15/2007,Common stocks
CLR,Continental Resources Inc,05/15/2007,Common stocks
ZEN,Zendesk Inc,05/15/2014,Common stocks
AVTR,"Avantor, Inc.",05/17/2019,Common stocks
PCOR,"Procore Technologies, Inc.",05/20/2021,Common stocks
ALNY,Alnylam Pharmaceuticals Inc,05/28/2004,Common stocks
LBTYA,Liberty Global Plc Class A,06/02/2004,Common stocks
AXON,"Axon Enterprise, Inc.",06/07/2001,Common stocks
LBTYB,Liberty Global Plc Class B,06/08/2004,Common stocks
CABO,Cable One Inc,06/11/2015,Common stocks
CRWD,"CrowdStrike Holdings, Inc. - Class A",06/12/2019,Common stocks
CHWY,"Chewy, Inc. Class A",06/14/2019,Common stocks
AVLR,Avalara Inc.,06/15/2018,Common stocks
BX,Blackstone Group Inc. Class A ,06/22/2007,Common stocks
ATUS,"Altice USA, Inc. Class A ",06/22/2017,Common stocks
FNF,Fidelity National Financial Inc,06/23/2014,Common stocks
TWLO,Twilio Inc Class A,06/23/2016,Common stocks
DOCS,"Doximity, Inc.",06/24/2021,Common stocks
TRU,TransUnion,06/25/2015,Common stocks
DT,"Dynatrace, Inc.",06/28/2019,Common stocks
TDOC,Teladoc Inc,07/01/2015,Common stocks
MOH,Molina Healthcare Inc,07/02/2003,Common stocks
FWONK,Liberty Media Formula One Corp Series C,07/08/2014,Common stocks
KKR,KKR & Co Inc.,07/15/2010,Common stocks
KDP,Keurig Dr Pepper Inc.,07/15/2013,Common stocks
HOOD,"Robinhood Markets, Inc.",07/19/2021,Common stocks
CGNX,Cognex Corp,07/20/1989,Common stocks
PANW,Palo Alto Networks Inc,07/20/2012,Common stocks
DISCB,Discovery Communications Inc. Series B ,07/21/2005,Common stocks
LULU,Lululemon Athletica Inc,07/27/2007,Common stocks
HZNP,Horizon Pharma Plc,07/28/2011,Common stocks
CNA,CNA Financial Corp,08/02/2001,Common stocks
BG,Bunge Ltd,08/02/2001,Common stocks
Z,Zillow Group Inc Class C,08/03/2015,Common stocks
RUN,Sunrun Inc,08/05/2015,Common stocks
UHAL,Amerco,08/06/2001,Common stocks
OSH,"Oak Street Health, Inc.",08/06/2020,Common stocks
MASI,Masimo Corp,08/08/2007,Common stocks
PTON,"Peloton Interactive, Inc. Class A",08/10/1998,Common stocks
MELI,Mercadolibre Inc,08/10/2007,Common stocks
BSY,"Bentley Systems, Inc Class B",08/11/1993,Common stocks
WLK,Westlake Chemical Corp,08/11/2004,Common stocks
VMW,VMWare Inc Class A,08/14/2007,Common stocks
LBTYK,Liberty Global Plc Class C,08/30/2005,Common stocks
TXG,"10x Genomics, Inc.",09/12/2019,Common stocks
NET,"Cloudflare, Inc. Class A",09/13/2019,Common stocks
ACGL,Arch Capital Group Ltd,09/14/1995,Common stocks
SNOW,Snowflake Inc. Class A,09/14/2020,Common stocks
LCID,"Lucid Group, Inc.",09/18/2020,Common stocks
U,Unity Software Inc.,09/18/2020,Common stocks
DDOG,"Datadog, Inc. - Class A",09/19/2019,Common stocks
ELAN,Elanco Animal Health Incorporated,09/20/2018,Common stocks
PLTR,Palantir Technologies Inc.,09/23/2020,Common stocks
RNG,Ringcentral Inc Class A,09/27/2013,Common stocks
ROKU,Roku Class A,09/28/2017,Common stocks
BURL,Burlington Stores Inc,10/02/2013,Common stocks
W,Wayfair Inc Class A,10/02/2014,Common stocks
NVCR,Novocure Ltd,10/02/2015,Common stocks
GH,Guardant Health Inc,10/04/2018,Common stocks
ESTC,Elastic N.V.,10/05/2018,Common stocks
COUP,Coupa Software Inc,10/06/2016,Common stocks
HUBS,Hubspot Inc,10/09/2014,Common stocks
WDAY,Workday Inc,10/12/2012,Common stocks
UI,Ubiquiti Inc.,10/14/2011,Common stocks
VEEV,Veeva Systems Inc Class A,10/16/2013,Common stocks
MDB,"MongoDB, Inc. Class A",10/19/2017,Common stocks
CLVT,Clarivate Plc,10/29/2018,Common stocks
RH,RH,11/02/2012,Common stocks
COIN,Coinbase Class A,11/03/1998,Common stocks
LBRDA,Liberty Broadband Corp Series A,11/04/2014,Common stocks
LBRDK,Liberty Broadband Corp Series C,11/04/2014,Common stocks
WTRG,"Essential Utilities, Inc.",11/05/1984,Common stocks
CHGG,Chegg Inc,11/13/2013,Common stocks
BAH,Booz Allen Hamilton Holding Corp,11/17/2010,Common stocks
SQ,Square Inc Class A,11/19/2015,Common stocks
MTCH,Match Group Inc,11/19/2015,Common stocks
SOFI,"SoFi Technologies, Inc.",11/30/2020,Common stocks
ABNB,"Airbnb, Inc.",12/01/2020,Common stocks
NVAX,Novavax Inc,12/05/1995,Common stocks
VIACA,ViacomCBS Inc. - Class A,12/05/2019,Common stocks
ATH,Athene Holding Ltd,12/09/2016,Common stocks
NUAN,Nuance Communications Inc,12/11/1995,Common stocks
BILL,"Bill.com Holdings, Inc.",12/12/2019,Common stocks
ZNGA,Zynga Inc ,12/16/2011,Common stocks
AGR,Avangrid Inc,12/17/2015,Common stocks
S,"SentinelOne, Inc.",12/17/2019,Common stocks
AMC,AMC Entertainment Holdings Inc Class A,12/18/2013,Common stocks
PPD,"PPD, Inc.",12/31/1997,Common stocks
RPRX,Royalty Pharma plc - Class A,12/31/1997,Common stocks
